Get HLA gene names from IMGTHLA — hla_genes • hlabud
…
    Value

    A tibble with two columns: HLA gene names ("A", "DRB1") and types ("nuc", "gen", "prot").

    See also

    hla_releases() to get a complete list of all release names.

    Examples

# \donttest{
hla_genes() 
#> # A tibble: 109 × 2
#>    gene  type 
#>    <chr> <chr>
#>  1 A     gen  
#>  2 A     nuc  
#>  3 A     prot 
#>  4 B     gen  
#>  5 B     nuc  
#>  6 B     prot 
#>  7 C     gen  
#>  8 C     nuc  
#>  9 C     prot 
#> 10 DMA   gen  
#> # ℹ 99 more rows
…
